
<svg width="41px" height="40px" viewBox="0 0 41 40" version="1.1" xmlns="http://www.w3.org/2000/svg" xmlns:xlink="http://www.w3.org/1999/xlink">
    <!-- Generator: Sketch 46.1 (44463) - http://www.bohemiancoding.com/sketch -->
    <desc>Created with Sketch.</desc>
    <defs></defs>
    <g id="Page-1" stroke="none" stroke-width="1" fill="none" fill-rule="evenodd" opacity="0.5">
        <g id="Hero_Race_Winter_Web_Landing_10_v18_2017" transform="translate(-922.000000, -4949.000000)" fill-rule="nonzero" fill="#FFFFFF">
            <g id="Иконка-Ключи-от-камеры-хранения" transform="translate(922.000000, 4949.000000)">
                <path d="M40.9048471,26.8889239 C39.7812005,20.3822572 37.812995,14.0530184 35.0548972,8.07695538 C34.4376366,6.73942257 33.1110451,5.91086614 31.6689549,5.96661417 C28.9207218,6.07265092 26.2984687,6.66866142 23.8339474,7.74267717 C23.8256241,7.59275591 23.8147318,7.44304462 23.7984962,7.29375328 C23.3116341,2.83496063 19.3649474,-0.388976378 15.0009649,0.109501312 C11.4821579,0.510656168 8.68912281,3.21690289 8.05552381,6.69816273 L6.03871429,6.17186352 C4.76082957,5.83832021 3.45427569,6.54057743 2.99916541,7.80514436 L0.214453634,15.5434121 C-0.0353483709,16.2375853 0.0146942356,17.0112336 0.351634085,17.6658268 C0.688573935,18.3204199 1.28415288,18.8008399 1.98557143,18.983937 L4.25382707,19.575853 L4.04122306,22.6420997 L2.84667419,24.791916 C2.78717794,24.8990026 2.75306266,25.0188976 2.74720551,25.1418373 L2.59050125,28.3877165 L1.68675439,29.5815223 C1.5944787,29.7034121 1.53919549,29.8502887 1.52789223,30.0038845 L1.2457218,33.8203675 L0.109230576,35.7624147 C-0.0511729323,36.0365354 -0.0337042607,36.3824672 0.153518797,36.6381102 L2.31079699,39.5848819 C2.45907519,39.7874016 2.68966165,39.9006824 2.92805764,39.9006824 C3.00759148,39.9006824 3.08805013,39.888084 3.16655639,39.8619423 L7.18209023,38.5259843 C7.43312531,38.4425197 7.62486967,38.2334908 7.6901203,37.9721785 L11.7969023,21.544147 L13.9419524,22.103937 C14.1504461,22.1584252 14.3630501,22.1850919 14.5747293,22.1850919 C15.0752581,22.1850919 15.5706491,22.0354856 15.9944185,21.7478215 C16.597396,21.3384777 17.0043133,20.6840945 17.1109749,19.9525459 L17.6687393,16.1248294 C18.2097544,15.9988451 18.7308346,15.8176378 19.2255063,15.5851969 C20.3911805,21.3068766 22.2123409,26.8741207 24.6538446,32.1641995 C25.2515815,33.4594226 26.5168271,34.2771654 27.9035313,34.2771654 C27.9488471,34.2771654 27.9942657,34.2763255 28.039787,34.2745407 C32.1155363,34.1172703 35.9147669,32.8838845 39.3319474,30.6089239 C40.5390326,29.8053543 41.156396,28.3450919 40.9048471,26.8889239 Z M8.45350125,11.1632546 C8.45843358,11.1632546 8.46336591,11.1640945 8.468401,11.1641995 C8.66281704,11.672126 8.9067619,12.159685 9.19766667,12.6180577 C9.34522556,12.8506037 9.5925614,12.9772178 9.84503509,12.9772178 C9.98868922,12.9772178 10.1339875,12.936168 10.2635639,12.8503937 C10.6207469,12.6138583 10.7225789,12.1262992 10.4910677,11.7613648 C10.4677419,11.7246194 10.4454436,11.6872441 10.4229398,11.6499738 L11.7449073,11.9949606 C12.1840902,12.1096063 12.4501278,12.567874 12.3379173,13.0165879 C12.2257068,13.4651969 11.7769674,13.7370079 11.33799,13.6224672 L8.25158396,12.8171129 C8.03887719,12.7615748 7.85997744,12.6247769 7.74797243,12.431811 C7.63596742,12.2388451 7.60421554,12.0129134 7.65847118,11.7954856 C7.71272682,11.5780577 7.84682456,11.3953806 8.03558897,11.2809449 C8.16413784,11.2031496 8.30768922,11.1632546 8.45350125,11.1632546 Z M2.66202005,34.4690814 C2.72336591,34.3641995 2.76005013,34.2460892 2.76909273,34.1243045 L3.04746115,30.3581102 L3.95788722,29.1553806 C4.05437594,29.0279265 4.11017293,28.8733858 4.11798246,28.7124409 L4.27766667,25.4064042 L5.46789975,23.264357 C5.52462155,23.1622047 5.55832581,23.048399 5.56644361,22.9312336 L5.77164912,19.9718635 L6.84741103,20.2525984 L2.57991729,37.3233596 L1.69723559,36.1175853 L2.66202005,34.4690814 Z M10.3035363,21.1544357 L6.30166917,37.1627297 L4.02128822,37.9214698 L8.34077694,20.6423097 L9.65750376,20.9859318 L10.3035363,21.1544357 Z M15.5863709,19.7206299 C15.5433158,20.0164829 15.3852757,20.2705512 15.1414336,20.4361155 C14.8975915,20.6016798 14.606995,20.6520735 14.323386,20.5780577 L2.36710777,17.4580577 C2.08339599,17.384042 1.85219298,17.1974803 1.71593734,16.9327034 C1.57957895,16.6679265 1.56015789,16.3675591 1.66116792,16.0868241 L4.4458797,8.34855643 C4.62724561,7.84451444 5.14791479,7.56451444 5.65738346,7.69753281 L7.92163158,8.28839895 C7.92502256,8.55874016 7.94012782,8.82929134 7.96941353,9.09784777 C7.98873183,9.27485564 8.01575689,9.45081365 8.04637845,9.62614173 C7.76872932,9.67611549 7.49899248,9.77511811 7.24919048,9.9264042 C6.70622306,10.2554331 6.32119298,10.7807874 6.16500251,11.4056693 C6.00870927,12.0306562 6.10006015,12.680315 6.42210025,13.2350656 C6.74414035,13.7898163 7.25833584,14.1832021 7.86994486,14.3427822 L10.9563509,15.1481365 C11.1514862,15.1990551 11.3490877,15.224252 11.5453534,15.224252 C11.9642932,15.224252 12.3771704,15.1095013 12.7468897,14.8854593 C13.2898571,14.5564304 13.6748872,14.0310761 13.8311805,13.4060892 C13.9874737,12.7811024 13.8960201,12.1314436 13.5740827,11.5767979 C13.2520426,11.0220472 12.7378471,10.6285564 12.1262381,10.4689764 L9.66438847,9.82656168 C9.59030075,9.53007874 9.53460652,9.22792651 9.50131328,8.92314961 C9.49309273,8.84734908 9.48723559,8.77133858 9.4814812,8.6952231 L16.0172306,10.4007349 C16.5264937,10.5336483 16.8521303,11.0343307 16.7746516,11.5654593 L15.5863709,19.7206299 Z M17.9168972,14.4211024 L18.2991529,11.7976903 C18.4933634,10.4650919 17.6762406,9.20860892 16.3985614,8.87527559 L9.55217794,7.08871391 C10.0261955,4.23328084 12.2993835,2.00209974 15.1719524,1.67464567 C18.6913759,1.27370079 21.8740652,3.87265092 22.2666992,7.46834646 C22.303589,7.80598425 22.3134536,8.14656168 22.2994787,8.48367454 C21.6461504,8.83128609 21.0049474,9.21396325 20.3767945,9.63212598 C19.169812,10.4356955 18.5524486,11.895853 18.8038947,13.352231 C18.8402707,13.5627297 18.8799348,13.7725984 18.9180576,13.9826772 C18.5988947,14.1570604 18.2642155,14.303727 17.9168972,14.4211024 Z M38.4904712,29.2894488 C35.3103509,31.4067192 31.774589,32.5544357 27.9815238,32.7007874 C27.16101,32.7316535 26.4013283,32.2582677 26.0479474,31.4924934 C23.5829123,26.1514961 21.7648346,20.5217848 20.6296792,14.7353281 C21.5147243,14.063937 22.2646441,13.2010499 22.825594,12.183727 C23.0344987,11.8048294 22.9032782,11.3246194 22.5324286,11.1111811 C22.1615789,10.8977428 21.6916717,11.031811 21.4826642,11.4107087 C21.1618571,11.9924409 20.7633659,12.5102362 20.3050702,12.9562205 C20.2140276,12.1640945 20.563401,11.3876115 21.2181679,10.951601 C24.3982882,8.83433071 27.9340501,7.68661417 31.7271153,7.54026247 C31.75301,7.53931759 31.778802,7.53879265 31.804594,7.53879265 C32.5958221,7.53879265 33.3185113,8.00703412 33.6606917,8.74855643 C36.3604236,14.5981102 38.2869098,20.7934908 39.3869223,27.1625197 C39.5309875,27.9962205 39.1790451,28.8310761 38.4904712,29.2894488 Z" id="Shape"></path>
                <path d="M36.803203,23.8807349 C36.5393233,23.032231 35.6489348,22.5613648 34.8184536,22.8308661 L27.331792,25.2611024 C26.5013108,25.5307087 26.0403434,26.4404199 26.3042231,27.2889239 L27.0178697,29.583832 C27.2313985,30.2703412 27.8549273,30.7097113 28.5251078,30.7097113 C28.6832506,30.7097113 28.8440652,30.6852493 29.0025163,30.6338058 L36.4891779,28.2035696 C36.4891779,28.2035696 36.4891779,28.2035696 36.4891779,28.2035696 C37.3196591,27.9339633 37.7806266,27.024252 37.5167469,26.175748 L36.803203,23.8807349 Z M28.5357945,29.1329134 C28.5154486,29.1396325 28.4932531,29.127979 28.4866767,29.1069816 L27.7730301,26.8120735 C27.7665564,26.7911811 27.7778596,26.7687139 27.798411,26.7619948 L30.8072356,25.7853018 L31.5445163,28.1562205 L28.5357945,29.1329134 Z M36.0223534,26.7025722 L36.0223534,26.7025722 L33.0135288,27.6792651 L32.2762481,25.3083465 L35.2850727,24.3316535 C35.2889774,24.3303937 35.292985,24.3297638 35.2968897,24.3297638 C35.3135363,24.3297638 35.3289499,24.3406824 35.3341905,24.3575853 L36.0478371,26.6524934 C36.0543108,26.6734908 36.0429048,26.695958 36.0223534,26.7025722 Z" id="Shape"></path>
                <path d="M24.156604,16.0134383 L32.1870551,13.4066142 C32.5927393,13.2749606 32.8170576,12.832231 32.6882005,12.4177428 C32.5593434,12.0032546 32.1255038,11.7740682 31.7203333,11.9057218 L23.6898822,14.5125459 C23.284198,14.6441995 23.0598797,15.0869291 23.1887368,15.5014173 C23.2929323,15.8365354 23.5962707,16.0506037 23.9230376,16.0506037 C24.0004135,16.0506037 24.0791253,16.0386352 24.156604,16.0134383 Z" id="Shape"></path>
                <path d="M33.4350376,14.8192126 C33.3061805,14.4047244 32.8724436,14.175643 32.4671704,14.3071916 L24.4367193,16.9140157 C24.0310351,17.0456693 23.8067168,17.488399 23.9355739,17.9028871 C24.0397694,18.2380052 24.3431078,18.4520735 24.6698747,18.4520735 C24.7471479,18.4520735 24.8258596,18.440105 24.9034411,18.4149081 L32.9338922,15.808084 C33.3395764,15.6763255 33.5638947,15.2335958 33.4350376,14.8192126 Z" id="Shape"></path>
            </g>
        </g>
    </g>
</svg>