<svg xmlns="http://www.w3.org/2000/svg" width="42" height="44" viewBox="0 0 42 44">
    <g fill="none" fill-rule="evenodd" stroke="#000" stroke-width="2" opacity="0.5">
        <path stroke-linecap="round" stroke-linejoin="round" d="M26.744.463l-3.196 4.052M26.744.463l-3.383 4.29-8.973 11.375M11.484 19.81L5.15 27.838c-.451.594-.612 1.207-.483 1.839.129.632.532 1.2 1.208 1.706l16.053 12.545 15.847-.344c.718-.112 1.23-.296 1.538-.552.308-.255.487-.645.538-1.171v-2.096c-.059-.523-.287-1.013-.686-1.472-.399-.458-.862-.764-1.39-.917l-7.34-2.572-7.063-10.184L41.969.697"/>
        <rect width="15" height="3" x="15.796" y="13.291" rx="1.5" transform="rotate(38 23.296 14.791)"/>
        <path stroke-linecap="round" stroke-linejoin="round" d="M26.424 5H13.778M10.759 5H8.08M17.344 16H6.224M3.396 16h-2.8M13.18 19.79c.359 3.667 6.71 8.416 10.233 4.887M9.305 23.112c2.469 2.096 2.504 5.254 1.145 7.306 3.17 2.473 7.257 5.637 12.26 9.493h8.103c1.71-1.747 3.897-2.618 6.561-2.613M20 31.217l5.304-3.359M22.947 33.22l4.095-2.547M25.568 35.463l3.462-2.235"/>
    </g>
</svg>
