<?xml version="1.0" encoding="UTF-8"?>
<svg width="55px" height="35px" viewBox="0 0 55 35" version="1.1" xmlns="http://www.w3.org/2000/svg" xmlns:xlink="http://www.w3.org/1999/xlink">
    <!-- Generator: Sketch 47.1 (45422) - http://www.bohemiancoding.com/sketch -->
    <title>Иконка Жетон</title>
    <desc>Created with Sketch.</desc>
    <defs></defs>
    <g id="Page-1" stroke="none" stroke-width="1" fill="none" fill-rule="evenodd" opacity="100">
        <g id="Hero_Race_Winter_MSK_2017" transform="translate(-828.000000, -2254.000000)" stroke="#f37b4e" stroke-width="1.5">
            <g id="Иконка-Жетон-Copy" transform="translate(828.000000, 2255.000000)">
                <path d="M27.488975,43.0295844 L26.438975,43.0295844 C26.195225,42.8812698 25.913975,42.8998091 25.632725,42.8998091 C23.963975,42.8256518 22.313975,42.5661012 20.701475,42.1211574 C17.082725,41.1200338 13.745225,39.5812698 11.007725,36.9301462 C10.688975,36.6520563 10.520225,36.2441911 10.538975,35.836326 C10.501475,24.1009327 10.463975,12.3840788 10.388975,0.648685516 C10.370225,0.166663044 10.557725,-0.315359428 10.913975,-0.649067293 C12.413975,-2.16929201 14.195225,-3.30019089 16.126475,-4.20861785 C18.563975,-5.39513471 21.188975,-6.15524707 23.907725,-6.48895493 C24.207725,-6.52603358 24.770225,-6.35917965 24.601475,-7.10075269 C24.357725,-8.21311224 24.826475,-9.10299988 25.763975,-9.6962583 C26.701475,-10.2895167 27.676475,-10.2524381 28.576475,-9.64064033 C29.476475,-9.02884257 29.870225,-8.13895493 29.645225,-7.06367403 C29.551475,-6.63726954 29.720225,-6.54457291 30.057725,-6.48895493 C30.676475,-6.3962583 31.295225,-6.322101 31.895225,-6.21086505 C36.413975,-5.26535943 40.463975,-3.46704482 43.670225,-0.0743481916 L43.670225,36.3925057 C40.463975,39.7295844 36.451475,41.5093597 31.988975,42.4919439 C30.507725,42.7700338 28.988975,42.7885732 27.488975,43.0295844 Z M29.9928363,-0.673910938 C29.9802382,-2.25588115 28.6700453,-3.5264399 27.0700982,-3.51398344 C25.470151,-3.50152698 24.1851541,-2.20605531 24.1977521,-0.624085105 C24.2103501,1.0201674 25.5205431,2.24090031 27.2338723,2.2159874 C28.7708294,2.19107448 30.0180323,0.883146355 29.9928363,-0.673910938 Z" id="Shape" stroke-linecap="round" stroke-linejoin="round" transform="translate(27.028959, 16.454285) rotate(-90.000000) translate(-27.028959, -16.454285) "></path>
                <path d="M38.0847254,26.0126043 L35.5626824,18.5514045 L42.0233767,13.9915882 L34.0859776,14.057451 L31.6875,6.54469423 L29.2890224,14.057451 L21.3516233,13.9915882 L27.8123176,18.5514045 L25.2902746,26.0126043 L31.6875,21.3353702 L38.0847254,26.0126043 Z" id="Star-2"></path>
            </g>
        </g>
    </g>
</svg>