
<svg width="39px" height="32px" viewBox="0 0 39 32" version="1.1" xmlns="http://www.w3.org/2000/svg" xmlns:xlink="http://www.w3.org/1999/xlink">
    <!-- Generator: Sketch 46.1 (44463) - http://www.bohemiancoding.com/sketch -->
    <desc>Created with Sketch.</desc>
    <defs></defs>
    <g id="Page-1" stroke="none" stroke-width="1" fill="none" fill-rule="evenodd" opacity="0.5">
        <g id="Hero_Race_Winter_Web_Landing_10_v18_2017" transform="translate(-1144.000000, -4958.000000)" fill="#FFFFFF">
            <g id="camera" transform="translate(1144.000000, 4958.000000)">
                <path d="M37.4765685,27.4513106 C37.4765685,28.4119284 36.7076164,29.1935529 35.7624794,29.1935529 L30.1275347,29.1935529 C33.6350835,26.5658668 35.9152035,22.3390091 35.9152035,17.5805136 C35.9152035,12.8220954 33.6351596,8.59531517 30.1277632,5.96762908 L35.7625556,5.96762908 C36.7076925,5.96762908 37.4766446,6.74909879 37.4766446,7.7097166 L37.4766446,27.4513106 L37.4765685,27.4513106 Z M9.06434155,17.5805136 C9.06434155,10.4833379 14.7452178,4.70941176 21.7279425,4.70941176 C28.7108195,4.70941176 34.3917719,10.4833379 34.3917719,17.5805136 C34.3917719,24.6776892 28.7108195,30.4516154 21.7279425,30.4516154 C14.7452178,30.4516154 9.06434155,24.6776892 9.06434155,17.5805136 Z M13.3282741,5.96762908 C9.82087765,8.59531517 7.54091,12.8220954 7.54091,17.5805136 C7.54091,22.3390091 9.82103,26.5658668 13.3285026,29.1935529 L3.23736821,29.1935529 C2.29230745,29.1935529 1.52343155,28.4119284 1.52343155,27.4513106 L1.52343155,7.7097166 C1.52343155,6.74909879 2.29230745,5.96762908 3.23736821,5.96762908 L13.3282741,5.96762908 L13.3282741,5.96762908 Z M3.99908399,4.41924449 L6.11254058,4.41924449 L6.11254058,2.87147924 L3.99908399,2.87147924 L3.99908399,4.41924449 Z M13.572861,1.5483846 L25.4272913,1.5483846 L27.3070535,4.32355432 C25.59365,3.57591681 23.7076418,3.16102716 21.7279425,3.16102716 C19.6652162,3.16102716 17.7041789,3.61114256 15.9342561,4.41924449 L11.6281245,4.41924449 L13.572861,1.5483846 Z M35.7624794,4.41924449 L29.2212452,4.41924449 L26.4549221,0.335225266 C26.3128621,0.125341733 26.0782536,0 25.8275729,0 L13.1724271,0 C12.9217464,0 12.6872141,0.125341733 12.5450779,0.335225266 L9.77852626,4.41924449 L7.63589595,4.41924449 L7.63589595,2.09728694 C7.63589595,1.66985537 7.29479963,1.32309464 6.87418018,1.32309464 L3.23736821,1.32309464 C2.81674876,1.32309464 2.47565244,1.66985537 2.47565244,2.09728694 L2.47565244,4.51214756 C1.05703298,4.86123087 0,6.16202877 0,7.7097166 L0,27.4513106 C0,29.2658625 1.45221112,30.7419375 3.23736821,30.7419375 L15.9345608,30.7419375 C17.7044074,31.5498846 19.6653685,32 21.7279425,32 C23.7905164,32 25.7515537,31.5498846 27.5214003,30.7419375 L35.7624794,30.7419375 C37.5477127,30.7419375 39,29.2658625 39,27.4513106 L39,7.7097166 C39,5.89531952 37.5477127,4.41924449 35.7624794,4.41924449 L35.7624794,4.41924449 Z" id="Fill-1"></path>
                <path d="M6.16181616,26.419014 L4.67620005,26.419014 L4.67620005,22.790493 C4.67620005,22.3539037 4.30089886,22 3.83810003,22 C3.37530119,22 3,22.3539037 3,22.790493 L3,27.209507 C3,27.6460963 3.37530119,28 3.83810003,28 L6.16189997,28 C6.62469881,28 7,27.6460963 7,27.209507 C6.99991619,26.7730758 6.62469881,26.419014 6.16181616,26.419014" id="Fill-4"></path>
                <path d="M4,22 C4.5522,22 5,21.5624481 5,21.0231036 L5,20.9768964 C5,20.4373565 4.5522,20 4,20 C3.4478,20 3,20.4373565 3,20.9768964 L3,21.0231036 C3,21.5625458 3.4477,22 4,22" id="Fill-5"></path>
                <path d="M21.9999624,26.495212 C16.7643393,26.495212 12.5048137,22.235684 12.5048137,16.9999248 C12.5048137,11.764316 16.7643393,7.50478796 21.9999624,7.50478796 C27.2356607,7.50478796 31.4951863,11.764316 31.4951863,16.9999248 C31.4951863,22.235684 27.2356607,26.495212 21.9999624,26.495212 Z M21.9999624,6 C15.9345851,6 11,10.9345007 11,16.9999248 C11,23.0653488 15.9345851,28 21.9999624,28 C28.0654149,28 33,23.0653488 33,16.9999248 C33,10.9345007 28.0654149,6 21.9999624,6 L21.9999624,6 Z" id="Fill-6"></path>
                <path d="M28.3062317,13.1009629 C27.2200974,11.6409404 25.7337025,10.5811365 24.0078637,10.0360325 C23.599934,9.9074351 23.1647366,10.1339154 23.0360676,10.5424332 C22.9073985,10.950951 23.1339056,11.386693 23.5418354,11.5154455 C26.4779845,12.4425412 28.4507036,15.138743 28.4507036,18.2243824 C28.4507036,18.6526009 28.7975911,19 29.2253518,19 C29.6531125,19 30,18.6526009 30,18.2243824 C30.0000775,16.362047 29.414366,14.5904589 28.3062317,13.1009629" id="Fill-7"></path>
                <path d="M22.0573171,9.00039992 L21.9508248,9 C21.4257793,9 21,9.44761048 21,9.99980004 C21,10.5517896 21.4257793,10.9996001 21.9508248,10.9996001 L22.040963,11 C22.0437204,11 22.0465728,11 22.0493302,11 C22.5705724,11 22.9954009,10.5580884 22.9999648,10.0087982 C23.0044337,9.45680864 22.5824577,9.00529894 22.0573171,9.00039992" id="Fill-8"></path>
                <path d="M5.99996667,9.66666667 C5.63237279,9.66666667 5.33331111,9.36773333 5.33331111,9.00013333 C5.33331111,8.6324 5.63237279,8.33333333 5.99996667,8.33333333 C6.36762721,8.33333333 6.66668889,8.6324 6.66668889,9.00013333 C6.66668889,9.36766667 6.36762721,9.66666667 5.99996667,9.66666667 Z M8,9.00013333 C8,7.89726667 7.10281495,7 5.99996667,7 C4.89718505,7 4,7.89726667 4,9.00013333 C4,10.1028667 4.89718505,11 5.99996667,11 C7.10281495,11 8,10.1028667 8,9.00013333 L8,9.00013333 Z" id="Fill-9"></path>
            </g>
        </g>
    </g>
</svg>