
<svg width="38px" height="39px" viewBox="0 0 38 39" version="1.1" xmlns="http://www.w3.org/2000/svg" xmlns:xlink="http://www.w3.org/1999/xlink">
    <!-- Generator: Sketch 46.1 (44463) - http://www.bohemiancoding.com/sketch -->
    <desc>Created with Sketch.</desc>
    <defs></defs>
    <g id="Page-1" stroke="none" stroke-width="1" fill="none" fill-rule="evenodd" opacity="0.5">
        <g id="Hero_Race_Winter_Web_Landing_10_v18_2017" transform="translate(-482.000000, -4952.000000)">
            <g id="Иконка-Манишка" transform="translate(482.000000, 4952.000000)">
                <path d="M10.827957,1.1154661 L10.827957,12.617161 M27.172043,1.1154661 L27.172043,12.617161" id="Shape" stroke="#FFFFFF" stroke-width="1" fill-rule="nonzero"></path>
                <path d="M18.0356989,19.2686441 L19.5475269,20.6650424 L19.5475269,26.4737288 L18.0356989,27.8701271 L14.8894624,27.8701271 L13.3776344,26.4737288 L13.3776344,20.6650424 L14.8894624,19.2686441 L18.0356989,19.2686441 L18.0356989,19.2686441 Z M14.7505376,25.1764831 L17.488172,20.5411017 L15.4288172,20.5411017 L14.7423656,21.1855932 L14.7505376,25.1764831 Z M18.1664516,25.953178 L18.1664516,21.9622881 L15.4288172,26.5976695 L17.488172,26.5976695 L18.1664516,25.953178 Z M21.3126882,22.1275424 L20.3810753,21.1855932 L22.2688172,19.2769068 L23.3965591,19.2769068 L23.3965591,26.5976695 L24.6060215,26.5976695 L24.6060215,27.8701271 L20.8141935,27.8701271 L20.8141935,26.5976695 L22.0236559,26.5976695 L22.0236559,21.6978814 L22.0808602,21.3012712 L22.031828,21.2764831 L21.7458065,21.6978814 L21.3126882,22.1275424 Z" id="Shape" fill="#FFFFFF" fill-rule="nonzero"></path>
                <path d="M35.916129,2.87542373 C33.2356989,1.97478814 30.5552688,1.06588983 27.8666667,0.156991525 C27.2374194,-0.0578389831 26.9187097,0.0330508475 26.5591398,0.603177966 C25.8154839,1.78474576 24.7531183,2.72669492 23.5027957,3.31334746 C22.2606452,3.91652542 20.895914,4.23877119 19.5148387,4.25529661 C16.2051613,4.31313559 13.2795699,3.48686441 11.3673118,0.462711864 C11.1139785,0.0661016949 10.7544086,-0.0495762712 10.2967742,0.107415254 C7.50193548,1.04936441 4.69892473,1.98305085 1.90408602,2.94152542 C0.686451613,3.36292373 -0.147096774,4.85021186 0.0817204301,6.12266949 C0.424946237,8.05614407 0.768172043,9.98961864 1.11956989,11.9230932 C1.38924731,13.3690678 2.73763441,14.3440678 4.17591398,14.1375 C5.10752688,14.0052966 6.03913978,13.8813559 6.96258065,13.7326271 C7.21591398,13.6913136 7.31397849,13.7491525 7.29763441,14.021822 C7.27311828,14.6002119 7.24860215,15.1786017 7.24860215,15.7569915 C7.26494624,18.7150424 7.24043011,31.315678 7.28129032,34.2819915 C7.28946237,34.6620763 7.28946237,34.9512712 7.28946237,35.157839 L7.28946237,36.2402542 C7.28946237,36.7608051 7.38752688,37.2565678 7.68172043,37.6862288 C8.22924731,38.5042373 8.97290323,38.9586864 9.96989247,38.9586864 C12.9690323,38.9504237 15.96,38.9586864 18.9591398,38.9586864 L28.0301075,38.9586864 C29.5255914,38.9586864 30.7023656,37.8019068 30.7105376,36.3228814 C30.7187097,35.1082627 30.7187097,34.5877119 30.7187097,34.3811441 C30.7187097,34.2902542 30.7268817,33.8440678 30.7432258,32.3402542 C30.775914,29.4813559 30.8004301,16.9716102 30.7023656,14.1127119 C30.6941935,13.7739407 30.784086,13.6995763 31.1191398,13.7574153 C32.0180645,13.9144068 32.9251613,14.021822 33.824086,14.1540254 C35.2787097,14.3605932 36.6352688,13.3690678 36.8967742,11.9065678 C37.2236559,10.0226695 37.5587097,8.1470339 37.9019355,6.26313559 C38.1797849,4.78411017 37.3217204,3.33813559 35.916129,2.87542373 L35.916129,2.87542373 Z M36.2675269,5.89957627 C35.9324731,7.79173729 35.5974194,9.69216102 35.2541935,11.584322 C35.1152688,12.3610169 34.8537634,12.5758475 34.0774194,12.4766949 C32.8107527,12.303178 31.544086,12.1213983 30.2774194,11.9230932 C29.452043,11.7908898 29.0434409,12.1131356 29.0434409,12.9394068 L29.0434409,34.5381356 C29.0516129,34.5959746 29.0516129,34.6455508 29.0516129,34.7033898 C29.0516129,35.8105932 29.0434409,36.0584746 29.0434409,35.9510593 L29.0434409,36.1658898 C29.0434409,37.0913136 28.871828,37.2648305 27.9402151,37.2648305 L9.92903226,37.2648305 C9.1772043,37.2648305 8.95655914,37.05 8.95655914,36.2815678 L8.95655914,36.1576271 L8.9483871,36.1576271 L8.9483871,14.1622881 C8.94021505,14.079661 8.94021505,13.9970339 8.9483871,13.9144068 C8.98924731,13.5756356 8.95655914,13.2286017 8.95655914,12.8815678 C8.95655914,12.1544492 8.58064516,11.815678 7.86967742,11.9148305 C6.6683871,12.0800847 5.47526882,12.2618644 4.27397849,12.4353814 L4.15139785,12.4601695 C3.12172043,12.617161 2.91741935,12.4601695 2.72946237,11.4108051 C2.3944086,9.5434322 2.05935484,7.67605932 1.71612903,5.80868644 C1.60172043,5.19724576 1.81419355,4.75105932 2.37806452,4.55275424 C4.93591398,3.67690678 7.51010753,2.81758475 10.076129,1.95 C10.255914,1.88389831 10.3376344,1.94173729 10.443871,2.08220339 C12.2008602,4.40402542 14.6197849,5.49470339 17.4064516,5.85 C19.768172,6.14745763 22.048172,5.84173729 24.2219355,4.81716102 C25.5294624,4.21398305 26.6653763,3.28855932 27.5316129,2.13177966 C27.6868817,1.92521186 27.8094624,1.90042373 28.0382796,1.97478814 C30.5062366,2.81758475 32.9905376,3.64385593 35.4584946,4.48665254 C36.1939785,4.74279661 36.4064516,5.11461864 36.2675269,5.89957627 Z" id="Shape" fill="#FFFFFF" fill-rule="nonzero"></path>
                <path d="M10.827957,12.617161 L27.172043,12.617161 L27.172043,32.8608051 C27.172043,33.4144068 26.7307527,33.8523305 26.1913978,33.8523305 L11.8167742,33.8523305 C11.2692473,33.8523305 10.827957,33.4061441 10.827957,32.8608051 L10.827957,12.617161 Z M10.827957,19.5 L8.09032258,19.5 L10.827957,19.5 Z M10.827957,29.0351695 L8.09032258,29.0351695 L10.827957,29.0351695 Z M29.8688172,19.5 L27.1311828,19.5 L29.8688172,19.5 Z M29.8688172,29.0351695 L27.1311828,29.0351695 L29.8688172,29.0351695 Z" id="Shape" stroke="#FFFFFF" stroke-width="1"></path>
            </g>
        </g>
    </g>
</svg>