<svg xmlns="http://www.w3.org/2000/svg" width="88" height="71" viewBox="0 0 72 71">
    <g fill="#fff" fill-rule="nonzero">
        <path d="M56.32 0A2 2 0 0 1 57 1.77c0 3.9 0 7.79-.28 11.68a58 58 0 0 1-1.28 8.95 18.77 18.77 0 0 1-4.22 8.06c-1.32 1.54-2.7 3-4 4.57a18.83 18.83 0 0 0-4.35 11.33 13.41 13.41 0 0 0 2 8.36 1.24 1.24 0 0 1-.3 1.77 1.2 1.2 0 0 1-1.77-.46A14.61 14.61 0 0 1 40.39 48a22.41 22.41 0 0 1 2.78-11.41 26.5 26.5 0 0 1 3.22-4.31c.83-.93 1.65-1.86 2.5-2.77a19.09 19.09 0 0 0 4.79-10.66 105.45 105.45 0 0 0 .85-15.72c0-.53-.14-.71-.7-.71h-36.1c-.66 0-.85.19-.85.85A103.15 103.15 0 0 0 17.5 17a24.55 24.55 0 0 0 2.17 8.38 27.72 27.72 0 0 0 4.35 5.7 32.91 32.91 0 0 1 4 5.09 21.86 21.86 0 0 1 2.89 9.35 15.83 15.83 0 0 1-1.43 8.81 17 17 0 0 1-1 1.68 1.21 1.21 0 0 1-1.78.46 1.24 1.24 0 0 1-.29-1.77 12 12 0 0 0 2-5.6c.32-5.25-.87-10.06-4.36-14.15-1.18-1.38-2.4-2.74-3.62-4.09a21.16 21.16 0 0 1-5.17-11.4 116.13 116.13 0 0 1-.95-18.13A1.8 1.8 0 0 1 15.1 0h41.22zM71.13 32.37a1.89 1.89 0 0 1-1.88.74c-1.6 0-1.6 0-1.59 1.58a4.82 4.82 0 0 1-.05.89 1.22 1.22 0 0 1-2.42-.08 13 13 0 0 1 0-1.8c0-.5-.17-.64-.64-.61a16 16 0 0 1-1.66 0 1.21 1.21 0 0 1 0-2.42 16.53 16.53 0 0 1 1.66 0c.5 0 .65-.17.62-.64-.03-.47 0-1.06 0-1.59a1.27 1.27 0 0 1 1.21-1.34 1.25 1.25 0 0 1 1.26 1.29 10.75 10.75 0 0 1 0 1.52c0 .55.12.82.72.76h1.24a1.49 1.49 0 0 1 1.51.75l.02.95zM35.57 70.87H20.7c-1.47 0-1.92-.57-1.57-2l2.15-8.57c.28-1.11.59-1.37 1.73-1.37h25.17c1.25 0 1.52.22 1.82 1.42.727 2.88 1.45 5.757 2.17 8.63.31 1.23-.18 1.85-1.46 1.85l-15.14.04zm.06-2.43h13.13c.39 0 .75.06.59-.56-.513-2-1.013-4-1.5-6-.1-.41-.32-.49-.69-.49H24.09a.6.6 0 0 0-.7.55 284.3 284.3 0 0 1-1.45 5.75c-.14.53 0 .71.55.7 4.39.03 8.77.05 13.14.04v.01z"/>
        <path d="M30.54 14.1c1.88.55 2.73-.44 3.21-2.08.22-.605.478-1.196.77-1.77a1.24 1.24 0 0 1 1.15-.85 1.26 1.26 0 0 1 1.22.86c.5 1.11 1 2.22 1.5 3.34a.73.73 0 0 0 .78.51h3.32a1.34 1.34 0 0 1 1.44.83 1.3 1.3 0 0 1-.58 1.55c-.94.79-1.85 1.59-2.8 2.36a.62.62 0 0 0-.22.82c.42 1.12.8 2.25 1.21 3.38a1.25 1.25 0 0 1-1.82 1.58c-1.07-.58-2.15-1.15-3.21-1.76a1.24 1.24 0 0 0-1.4 0c-1.08.61-2.2 1.15-3.3 1.74a1.28 1.28 0 0 1-1.88-1.66c.44-1.06.84-2.14 1.29-3.2a.66.66 0 0 0-.25-.92c-1-.74-1.91-1.52-2.87-2.28-.5-.4-.87-.85-.63-1.54a1.34 1.34 0 0 1 1.48-.88l1.59-.03zm1.81 2.55c.57.73 1.54 1 1.74 1.85.2.85-.51 1.53-.63 2.37.85-.25 1.48-1 2.36-1 .88 0 1.47.77 2.29 1-.12-.83-.74-1.52-.56-2.35.18-.83 1.17-1.1 1.62-1.81a1.33 1.33 0 0 0-.78-.09 1.69 1.69 0 0 1-1.9-1.24 6 6 0 0 0-.81-1.62c-.38.8-.67 1.55-1.07 2.25-.49.84-1.43.5-2.27.64h.01zM66.45 13.05c-.07 1.39.12 3.12-.09 4.84-.47 3.71-2.63 6.08-6 7.46a15.08 15.08 0 0 1-1.9.61 1.19 1.19 0 0 1-1.5-.87 1.17 1.17 0 0 1 .81-1.47 13.31 13.31 0 0 0 2.94-1.18 6.17 6.17 0 0 0 3.22-5.17c.17-2.95.06-5.9.06-8.85 0-.93-.45-1.31-1.4-1.32h-2.07a1.19 1.19 0 0 1-1.24-1.21 1.21 1.21 0 0 1 1.24-1.22h2.63a3.56 3.56 0 0 1 3.3 3.47c.03 1.54 0 3.06 0 4.91zM7.41 12.92a32.59 32.59 0 0 0 .18 5.23c.51 2.68 2.31 4.19 4.76 5.08.45.16.93.27 1.38.44a1.22 1.22 0 0 1-.67 2.33c-3.36-.87-6.14-2.5-7.48-5.92A8.62 8.62 0 0 1 5 17V8.36A3.57 3.57 0 0 1 8.68 4.7h2.21a1.215 1.215 0 1 1 0 2.43H8.95c-1.11 0-1.51.41-1.52 1.5-.03 1.37-.02 2.66-.02 4.29zM60.43 59.08a1.24 1.24 0 0 1-1.15-1.39c0-.81-.25-1-1-1a1.23 1.23 0 1 1 0-2.45c.85 0 1-.28 1-1.06a1.23 1.23 0 1 1 2.44.07c0 .73.14 1 .93 1a1.25 1.25 0 0 1 1.44 1.24 1.27 1.27 0 0 1-1.45 1.23c-.73 0-1 .18-.91.91a1.27 1.27 0 0 1-1.3 1.45zM7.4 43.81a1.1 1.1 0 0 1-1 1 3.94 3.94 0 0 1-.83.06c-.41 0-.59.18-.56.59a3.85 3.85 0 0 1 0 .62 1.21 1.21 0 0 1-2.42 0 1 1 0 0 1 0-.28c.13-.74-.2-.94-.91-.94-1 0-1.48-.5-1.45-1.28.03-.78.56-1.21 1.5-1.16.71 0 .91-.19.87-.88 0-.95.47-1.5 1.24-1.48.77.02 1.21.55 1.16 1.48 0 .7.17.93.88.89a1.24 1.24 0 0 1 1.52 1.38zM18 48.52c0 .2-.08.62-.36.71-.89.27-.95 1.57-2 1.57-.34 0-.77-.08-.85-.35-.28-.9-1.64-1-1.57-2.09 0-.32.08-.71.34-.79.88-.27.94-1.58 2-1.56.34 0 .76.06.85.35.35.87 1.59.95 1.59 2.16zM35.72 63.71h5.59c.89 0 1.45.48 1.46 1.21.01.73-.57 1.23-1.45 1.23H30a1.24 1.24 0 0 1-1.35-.85 1.18 1.18 0 0 1 .42-1.36 1.49 1.49 0 0 1 1-.23h5.65z"/>
    </g>
</svg>
