<?xml version="1.0" encoding="UTF-8"?>
<svg width="43px" height="52px" viewBox="0 0 43 52" version="1.1" xmlns="http://www.w3.org/2000/svg" xmlns:xlink="http://www.w3.org/1999/xlink">
    <!-- Generator: Sketch 47.1 (45422) - http://www.bohemiancoding.com/sketch -->
    <title>Icon Сопровождение детей</title>
    <desc>Created with Sketch.</desc>
    <defs></defs>
    <g id="Page-1" stroke="none" stroke-width="1" fill="none" fill-rule="evenodd" stroke-linecap="round" opacity="100" stroke-linejoin="round">
        <g id="Hero_Race_Winter_MSK_2017" transform="translate(-1103.000000, -2245.000000)" stroke="#fff" fill-rule="nonzero" stroke-width="1.5">
            <g id="Icon-Сопровождение-детей" transform="translate(1104.000000, 2246.000000)">
                <path d="M32.933,7.552 C30.482,7.552 28.4995,9.531 28.4995,11.9725 C28.4995,14.4205 30.482,16.3995 32.933,16.3995 C35.3715,16.3995 37.354,14.4205 37.354,11.9725 C37.354,9.531 35.3715,7.552 32.933,7.552 Z" id="Shape"></path>
                <path d="M40.9405,32.7605 C40.4395,32.9755 39.8565,32.7285 39.6415,32.233 L37.5785,23.62 L37.295,32.7735 L37.288,32.7735 L38.1085,47.91 C38.1605,48.8215 37.4805,49.609 36.5725,49.674 C36.53,49.681 36.491,49.681 36.4485,49.681 C35.589,49.681 34.8565,49.017 34.808,48.1445 L32.923,33.861 L31.055,48.1445 C30.9865,49.017 30.2605,49.681 29.398,49.681 C29.3625,49.681 29.3235,49.681 29.278,49.674 C28.3725,49.609 27.686,48.8215 27.745,47.91 L28.552,32.7735 L28.2745,23.62 C28.2745,23.62 22.7765,29.1605 22.4345,29.31 C21.836,29.564 21.1455,29.2835 20.8885,28.685 L16.422,18.965 L19.8075,35.3845 L16.54,35.3845 L15.5305,48.822 C15.5305,49.4665 15,50 14.3585,50 C13.6945,50 13.1735,49.4665 13.1735,48.822 L12.1675,35.3845 L11.575,35.3845 L10.9795,35.3845 L9.9735,48.822 C9.9735,49.4665 9.4495,50 8.7885,50 C8.144,50 7.6165,49.4665 7.6165,48.822 L6.604,35.3845 L3.34,35.3845 L6.722,18.965 L2.259,28.685 C2.005,29.2835 1.3085,29.564 0.7095,29.31 C0.117,29.056 -0.163,28.3655 0.0975,27.76 C0.0975,27.76 2.7505,18.112 3.9775,15.5985 C5.2015,13.0885 6.4255,11.562 11.0935,11.562 L11.575,11.562 L12.0535,11.562 C16.7185,11.562 17.9455,13.0885 19.1695,15.5985 C20.068,17.4345 21.715,23.066 22.542,25.97 C23.7305,24.3485 25.342,22.0635 25.957,20.7875 C26.992,18.665 28.5935,17.389 32.526,17.389 L33.327,17.389 C37.2625,17.389 38.8545,18.665 39.896,20.7875 C40.931,22.897 41.4685,31.458 41.4685,31.458 C41.6865,31.9725 41.4455,32.5455 40.9405,32.7605 Z" id="Shape"></path>
                <path d="M19.0985,8.216 C19.0985,9.4855 18.0245,10.5145 16.6895,10.5145 C15.7585,10.5145 14.9775,9.997 14.577,9.258 C13.6655,10.007 12.549,10.5145 11.2795,10.5145 C10.0035,10.5145 8.89,10.0065 7.9785,9.258 C7.578,9.997 6.7935,10.5145 5.866,10.5145 C4.5315,10.5145 3.457,9.4855 3.457,8.216 C3.457,6.95 4.531,5.918 5.866,5.918 C5.967,5.918 6.058,5.9635 6.159,5.9765 C6.123,5.7325 6.0125,5.5145 6.0125,5.257 C6.0125,2.3535 8.369,0 11.2795,0 C14.1865,0 16.54,2.3535 16.54,5.257 C16.54,5.5145 16.4325,5.7325 16.3965,5.9765 C16.494,5.9635 16.585,5.918 16.6895,5.918 C18.024,5.918 19.0985,6.95 19.0985,8.216 Z" id="Shape"></path>
            </g>
        </g>
    </g>
</svg>