<?xml version="1.0" encoding="UTF-8"?>
<svg width="320px" height="440px" viewBox="0 0 320 440" version="1.1" xmlns="http://www.w3.org/2000/svg" xmlns:xlink="http://www.w3.org/1999/xlink" style="background: #000000;">
    <!-- Generator: Sketch 46.1 (44463) - http://www.bohemiancoding.com/sketch -->
    <title>GR_3</title>
    <desc>Created with Sketch.</desc>
    <defs>
        <rect id="path-1" x="0" y="0" width="1440" height="80"></rect>
    </defs>
    <g id="Page-1" stroke="none" stroke-width="1" fill="none" fill-rule="evenodd">
        <g id="GR_3">
            <path d="M526,-11.7675781 C59.0239186,36.5585938 47.344484,441.960938 10,474.767578" id="Oval" stroke="#383838" stroke-width="5" stroke-linecap="round" stroke-linejoin="round"></path>
            <path d="M161.088286,161.842573 C89.7623409,243.888727 57.604165,336.889886 37.9867137,400.44989" id="Oval" stroke="#FFFFFF" stroke-width="5" stroke-linecap="round" stroke-linejoin="round"></path>
            <g id="Oval" transform="translate(-560.000000, 160.000000)">
                <mask id="mask-2" fill="white">
                    <use xlink:href="#path-1"></use>
                </mask>
                <use id="Mask" fill="#F05A22" xlink:href="#path-1"></use>
                <path d="M1086,-171.767578 C619.023919,-123.441406 607.344484,281.960938 570,314.767578" stroke="#F8875D" stroke-width="5" stroke-linecap="round" stroke-linejoin="round" mask="url(#mask-2)"></path>
            </g>
            <path d="M-24,320 L338,320" id="Line-2-Copy-2" stroke="#575757" stroke-linecap="square" stroke-dasharray="4"></path>
            <path d="M-24,401 L338,401" id="Line-2-Copy-3" stroke="#575757" stroke-linecap="square" stroke-dasharray="4"></path>
            <circle id="Oval-4-Copy-2" stroke="#000000" stroke-width="3" fill="#FFFFFF" cx="37.5" cy="400.5" r="6.5"></circle>
            <circle id="Oval-4-Copy-3" stroke="#000000" stroke-width="3" fill="#FFFFFF" cx="65.5" cy="320.5" r="6.5"></circle>
            <circle id="Oval-4-Copy-4" stroke="#000000" stroke-width="3" fill="#F05A22" cx="104.5" cy="240.5" r="6.5"></circle>
            <circle id="Oval-4-Copy-5" stroke="#000000" stroke-width="3" fill="#F05A22" cx="161.5" cy="160.5" r="6.5"></circle>
        </g>
    </g>
</svg>